\relax 
\catcode`"\active
\catcode`-\active
\providecommand\HyperFirstAtBeginDocument{\AtBeginDocument}
\HyperFirstAtBeginDocument{\ifx\hyper@anchor\@undefined
\global\let\oldcontentsline\contentsline
\gdef\contentsline#1#2#3#4{\oldcontentsline{#1}{#2}{#3}}
\global\let\oldnewlabel\newlabel
\gdef\newlabel#1#2{\newlabelxx{#1}#2}
\gdef\newlabelxx#1#2#3#4#5#6{\oldnewlabel{#1}{{#2}{#3}}}
\AtEndDocument{\ifx\hyper@anchor\@undefined
\let\contentsline\oldcontentsline
\let\newlabel\oldnewlabel
\fi}
\fi}
\global\let\hyper@last\relax 
\gdef\HyperFirstAtBeginDocument#1{#1}
\providecommand\HyField@AuxAddToFields[1]{}
\select@language{czech}
\@writefile{toc}{\select@language{czech}}
\@writefile{lof}{\select@language{czech}}
\@writefile{lot}{\select@language{czech}}
\@writefile{lof}{\contentsline {figure}{\numberline {1}{\ignorespaces Hlavn\IeC {\'\i } okno programu.}}{6}{figure.0.1}}
\@writefile{lof}{\contentsline {figure}{\numberline {2}{\ignorespaces Vygenerov\IeC {\'a}n\IeC {\'\i } nov\IeC {\'e}ho grafu.}}{6}{figure.0.2}}
\@writefile{lof}{\contentsline {figure}{\numberline {3}{\ignorespaces V\IeC {\'y}b\IeC {\v e}r \IeC {\v c}asu pro vytvo\IeC {\v r}en\IeC {\'\i } nov\IeC {\'e}ho breakpointu.}}{7}{figure.0.3}}
\@writefile{lof}{\contentsline {figure}{\numberline {4}{\ignorespaces Spu\IeC {\v s}t\IeC {\v e}n\IeC {\'\i } simulace.}}{7}{figure.0.4}}
\@writefile{lof}{\contentsline {figure}{\numberline {5}{\ignorespaces P\IeC {\v r}ehled informac\IeC {\'\i } o vybran\IeC {\'e}m v\IeC {\'y}jezdu.}}{8}{figure.0.5}}
\@writefile{lof}{\contentsline {figure}{\numberline {6}{\ignorespaces P\IeC {\v r}ehled informac\IeC {\'\i } o vybran\IeC {\'e}m zmrzlin\IeC {\'a}\IeC {\v r}stv\IeC {\'\i }.}}{9}{figure.0.6}}
\@writefile{lof}{\contentsline {figure}{\numberline {7}{\ignorespaces Vytvo\IeC {\v r}en\IeC {\'\i } nov\IeC {\'e} objedn\IeC {\'a}vky.}}{9}{figure.0.7}}
\@writefile{lof}{\contentsline {figure}{\numberline {8}{\ignorespaces Vytvo\IeC {\v r}en\IeC {\'e} HTML statistiky.}}{10}{figure.0.8}}
